{
    "key": "group_620f96ae0dff8",
    "title": "תחומי הטיפול שלנו",
    "fields": [
        {
            "key": "field_620f96b9f1463",
            "label": "כותרת",
            "name": "treat_cats_title",
            "type": "text",
            "instructions": "",
            "required": 0,
            "conditional_logic": 0,
            "wrapper": {
                "width": "",
                "class": "",
                "id": ""
            },
            "wpml_cf_preferences": 0,
            "default_value": "",
            "placeholder": "",
            "prepend": "",
            "append": "",
            "maxlength": ""
        },
        {
            "key": "field_620fbb81f5fd8",
            "label": "טקסט",
            "name": "treat_cats_text",
            "type": "wysiwyg",
            "instructions": "",
            "required": 0,
            "conditional_logic": 0,
            "wrapper": {
                "width": "75",
                "class": "",
                "id": ""
            },
            "default_value": "",
            "tabs": "all",
            "toolbar": "full",
            "media_upload": 1,
            "delay": 0,
            "wpml_cf_preferences": 0
        },
        {
            "key": "field_620fbb99f5fd9",
            "label": "קישור לכל הטיפולים",
            "name": "treat_cats_link",
            "type": "link",
            "instructions": "",
            "required": 0,
            "conditional_logic": 0,
            "wrapper": {
                "width": "25",
                "class": "",
                "id": ""
            },
            "return_format": "array",
            "wpml_cf_preferences": 0
        },
        {
            "key": "field_620fbbb6f5fda",
            "label": "טיפולים",
            "name": "treat_cats",
            "type": "taxonomy",
            "instructions": "",
            "required": 0,
            "conditional_logic": 0,
            "wrapper": {
                "width": "",
                "class": "",
                "id": ""
            },
            "wpml_cf_preferences": 0,
            "taxonomy": "treatment_cat",
            "field_type": "checkbox",
            "add_term": 1,
            "save_terms": 0,
            "load_terms": 0,
            "return_format": "object",
            "multiple": 0,
            "allow_null": 0
        }
    ],
    "location": [
        [
            {
                "param": "post_type",
                "operator": "==",
                "value": "post"
            }
        ],
        [
            {
                "param": "post_type",
                "operator": "==",
                "value": "page"
            },
            {
                "param": "page_template",
                "operator": "!=",
                "value": "views\/cards.php"
            },
            {
                "param": "page_template",
                "operator": "!=",
                "value": "views\/contact.php"
            }
        ],
        [
            {
                "param": "options_page",
                "operator": "==",
                "value": "theme-general-settings"
            }
        ],
        [
            {
                "param": "taxonomy",
                "operator": "==",
                "value": "all"
            }
        ]
    ],
    "menu_order": 4,
    "position": "normal",
    "style": "default",
    "label_placement": "top",
    "instruction_placement": "label",
    "hide_on_screen": "",
    "active": true,
    "description": "",
    "show_in_rest": 0,
    "modified": 1645509287
}